rrasmy_project2.knit
…
#res05 <- results(dds, alpha=0.05)

# Filters all the differentially expressed genes by the padj threshold (0.05) 
# and generates a list of the gene symbols within that threshold 
sig_genes_cts <- deseq2_res %>% filter(padj < 0.05)
res05_ordered <- deseq2_res %>%
  filter(padj<0.05) %>%
  select(symbol)
res05_ordered

## # A tibble: 1,254 × 1
##    symbol         
##    <chr>          
##  1 RPS4Y1         
##  2 ENSG00000289575
##  3 PNPO           
##  4 PCDHGA10       
##  5 YPEL3-DT       
##  6 LINC02506      
##  7 SLC2A14        
##  8 ENSG00000286339
##  9 ENSG00000289456
## 10 ENSG00000282914
## # ℹ 1,244 more rows
…
Read in the gene symbols file (.gmt)

# Load the pathway gene sets from the MSigDB C2: Canonical Pathways collection
fgsea_pathways <- fgsea::gmtPathways('c2.cp.v2025.1.Hs.symbols.gmt')

Run fgsea (default parameters)

# Run FGSEA with default parameters
fgsea_results <- fgsea(fgsea_pathways, fgsea_rnk_lst, minSize = 15, maxSize=500)
fgsea_results <- fgsea_results %>% as_tibble()
fgsea_results

## # A tibble: 2,350 × 8
##    pathway                    pval  padj log2err     ES    NES  size leadingEdge
##    <chr>                     <dbl> <dbl>   <dbl>  <dbl>  <dbl> <int> <list>     
##  1 BIOCARTA_41BB_PATHWAY    0.989  1      0.0412 -0.200 -0.461    15 <chr [15]> 
##  2 BIOCARTA_AGR_PATHWAY     0.317  0.799  0.0956 -0.405 -1.10     30 <chr [5]>  
##  3 BIOCARTA_AKT_PATHWAY     0.753  1      0.0644  0.316  0.788    19 <chr [10]> 
##  4 BIOCARTA_ALK_PATHWAY     0.0706 0.440  0.266   0.518  1.44     34 <chr [4]>  
##  5 BIOCARTA_AMI_PATHWAY     0.0632 0.430  0.271   0.619  1.52     18 <chr [11]> 
##  6 BIOCARTA_ARAP_PATHWAY    0.307  0.791  0.115   0.475  1.14     16 <chr [9]>  
##  7 BIOCARTA_ARENRF2_PATHWAY 0.378  0.853  0.102   0.426  1.06     19 <chr [4]>  
##  8 BIOCARTA_ARF_PATHWAY     0.0519 0.411  0.322   0.653  1.56     16 <chr [3]>  
##  9 BIOCARTA_AT1R_PATHWAY    0.291  0.782  0.119   0.424  1.14     27 <chr [4]>  
## 10 BIOCARTA_ATM_PATHWAY     0.964  1      0.0523  0.234  0.594    20 <chr [9]>  
## # ℹ 2,340 more rows
…
volcano_df

## # A tibble: 20,579 × 9
##    symbol   gene  baseMean log2FoldChange lfcSE   stat  pvalue    padj direction
##    <chr>    <chr>    <dbl>          <dbl> <dbl>  <dbl>   <dbl>   <dbl> <chr>    
##  1 WASH7P   ENSG…    180.          0.151  0.176  0.861 3.89e-1  0.847  NS       
##  2 ENSG000… ENSG…     58.5         0.0494 0.256  0.193 8.47e-1  0.983  NS       
##  3 ENSG000… ENSG…     36.2         0.0467 0.354  0.132 8.95e-1  0.989  NS       
##  4 ENSG000… ENSG…     28.0         0.339  0.417  0.813 4.16e-1  0.863  NS       
##  5 WASH9P   ENSG…    103.          0.197  0.201  0.981 3.27e-1  0.806  NS       
##  6 ENSG000… ENSG…     28.0        -0.169  0.358 -0.471 6.38e-1  0.948  NS       
##  7 ENSG000… ENSG…     38.3         0.330  0.383  0.863 3.88e-1  0.846  NS       
##  8 ENSG000… ENSG…     13.0         0.239  0.593  0.404 6.86e-1 NA      NS       
##  9 MTND1P23 ENSG…   1561.          0.366  0.138  2.65  8.03e-3  0.0959 UP       
## 10 MTND2P28 ENSG…    969.          0.368  0.107  3.45  5.62e-4  0.0133 UP       
## # ℹ 20,569 more rows
…
